<div class="page search-results">
    <search :blurb='{"html":{"blurb":{"id":488,"user_id":186,"title":"Konferens p\u00e5 Viking Glory - en annorlunda upplevelse","url_title":"Maximera produktiviteten med havsutsikt och skr\u00e4ddarsydda paket. Ta del av v\u00e5rt erbjudande h\u00e4r!","url_title_short":"Maximera produktiviteten med havsutsikt och skr\u00e4ddarsydda paket. Ta del av v\u00e5rt erbjudande h\u00e4r!","url":"http:\/\/pubads.g.doubleclick.net\/gampad\/clk?id=6777701891&amp;iu=\/3953516\/adprofit-native-klick","thumbnailId":"t_VL_konferens_1200x628_mote.jpg","script_text":null,"blurb_placements_id":488,"advert_company":"Viking Line","advert":1,"published_at":"2024-09-01T22:00:00.000000Z","unpublished_at":"2024-09-29T22:00:00.000000Z","status":"publish","created_at":"2024-08-30T10:14:40.000000Z","updated_at":"2024-08-30T10:14:45.000000Z","pivot":{"placements_id":3,"blurb_id":488}}}}' :max-compare-companies="2" :max-xr="501000" :min-xr="0" :search-result-default='[{"orgnr":"556653-3096","jurnamn":"Polestar Performance AB","ftgtyp":"ab","bolpres":"","abv_hgrupp":"Motorfordonshandel","abv_ugrupp":"Personbilar &amp; L\u00e4tta Motorfordon, Handel","ba_postort":"G\u00f6teborg","companyPresentation":{},"linkTo":"5566533096\/polestar-performance-ab","score":{"0":"100.000"},"remarks":[],"hasremarks":false,"relatedmetadata":[{"key":"dottrarNamn","value":"polestar automative uk ltd"},{"key":"cfarNamn","value":"polestar performance ab"}],"hasrelatedmetadata":true,"status":""},{"orgnr":"559225-6258","jurnamn":"Polestar Automotive Sweden AB","ftgtyp":"ab","bolpres":"","abv_hgrupp":"Motorfordonshandel","abv_ugrupp":"Lastbilar, Bussar &amp; Specialfordon, Handel","ba_postort":"G\u00f6teborg","companyPresentation":{},"linkTo":"5592256258\/polestar-automotive-sweden-ab","score":{"0":"100.000"},"remarks":[],"hasremarks":false,"relatedmetadata":[{"key":"cfarNamn","value":"polestar automotive sweden ab"}],"hasrelatedmetadata":true,"status":""},{"orgnr":"556786-7840","jurnamn":"Polestar Holding AB","ftgtyp":"ab","bolpres":"","abv_hgrupp":"Bank, Finans &amp; F\u00f6rs\u00e4kring","abv_ugrupp":"Holdingverksamhet i icke-finansiella koncerner","ba_postort":"G\u00f6teborg","companyPresentation":{},"linkTo":"5567867840\/polestar-holding-ab","score":{"0":"100.000"},"remarks":[],"hasremarks":false,"relatedmetadata":[{"key":"dottrarNamn","value":"polestar automotive pteltd"},{"key":"cfarNamn","value":"polestar holding ab"},{"key":"varumarket","value":"polestar"}],"hasrelatedmetadata":true,"status":""},{"orgnr":"730509-XXXX","jurnamn":"The Polestar Project","ftgtyp":"ef","bolpres":"","abv_hgrupp":"Media","abv_ugrupp":"Ljudinspelning &amp; fonogramutgivning","ba_postort":"Vittangi","companyPresentation":{},"linkTo":"730509XHIH\/the-polestar-project","score":{"0":"100.000"},"remarks":[],"hasremarks":false,"relatedmetadata":[{"key":"cfarNamn","value":"the polestar project"}],"hasrelatedmetadata":true,"status":""},{"orgnr":"502091-8404","jurnamn":"POLESTAR AUTOMOTIVE USA INC","ftgtyp":"fi","bolpres":"","abv_hgrupp":"Tillverkning &amp; Industri","abv_ugrupp":"Motorfordonstillverkning","ba_postort":"G\u00f6teborg","companyPresentation":{},"linkTo":"5020918404\/polestar-automotive-usa-inc","score":{"0":"100.000"},"remarks":[],"hasremarks":false,"relatedmetadata":[{"key":"cfarNamn","value":"polestar automotive usa inc"}],"hasrelatedmetadata":true,"status":""},{"orgnr":"502091-3371","jurnamn":"POLESTAR AUTOMOTIVE HOLDING UK PLC","ftgtyp":"fi","bolpres":"","abv_hgrupp":"Bank, Finans &amp; F\u00f6rs\u00e4kring","abv_ugrupp":"Investeringsfonder","ba_postort":"Ok\u00e4nd","companyPresentation":{},"linkTo":"5020913371\/polestar-automotive-holding-uk-plc","score":{"0":"100.000"},"remarks":[],"hasremarks":false,"relatedmetadata":[{"key":"cfarNamn","value":"polestar automotive holding uk plc"}],"hasrelatedmetadata":true,"status":""},{"orgnr":"556196-2332","jurnamn":"FocusNeo AB","ftgtyp":"ab","bolpres":"V\u00e4lkommen till FocusNeo|  FocusNeo  &amp;auml;r Nordens st&amp;ouml;rsta leverant&amp;ouml;r av kundanpassade skyltl&amp;ouml;sningar, wayfinding och visuell kommunikation. \n  Vi f&amp;ouml;rst&amp;auml;rker v&amp;aring;ra kunders varum&amp;auml;rken med skyltning som ber&amp;ouml;r och skapar unika bes&amp;ouml;ksupplevelser genom v&amp;auml;l genomt&amp;auml;nkt wayfinding.   \n Med &amp;ouml;ver 50 medarbetare p&amp;aring; v&amp;aring;ra kontor i Sverige, Norge och Finland hanterar vi allt fr&amp;aring;n omfattande och komplexa skylt- och wayfindingprojekt till kompletta omprofileringar av f&amp;ouml;retag. Vi erbjuder h&amp;aring;llbara helhetsl&amp;ouml;sningar som rymmer allt fr&amp;aring;n strategi och design till installation och eftermarknad. \n Vi har resurser f&amp;ouml;r b&amp;aring;de det lokala f&amp;ouml;retagets synlighet och som t&amp;auml;cker det globala f&amp;ouml;retagets behov av effektiv projektledning och kontroll. Vi har fyra kontor i Norden, samarbetspartners &amp;ouml;ver hela v&amp;auml;rlden och bland v&amp;aring;ra kunder finns en rad v&amp;auml;lk&amp;auml;nda varum&amp;auml;rken som t ex Polestar, SEB, Synsam och Espresso House.&amp;nbsp; \n  Tj&amp;auml;nster  \n \n   Varum&amp;auml;rkesskyltning   \n   Wayfinding   \n   Design &amp;amp; konstruktion   \n   Projektledning   \n   Finansiering   \n \n  Urval av produkter  \n \n   Fasadskyltar   \n   Profilbokst&amp;auml;ver   \n   Ljusskyltar   \n   Fastighetsskyltning   \n   Neonskyltar   \n   Digitala skyltar   \n   Dekor   \n   Pyloner   \n \n  Epost:  info@focusneo.se    &amp;Ouml;vriga    kontaktuppgifter   |Bolagspresentation|UCSigill4","abv_hgrupp":"Partihandel","abv_ugrupp":"Maskiner &amp; Utrustning \u00f6vriga, Partihandel","ba_postort":"Solna","companyPresentation":{"hasPresentation":1,"logo":"https:\/\/www.allabolag.se\/bolagspresentation\/?file=images\/2019\/1\/15c486b421e9e3.png","showSigill":true,"sigillRating":4,"sigillImg":"&lt;img class=\"company-rating\" src=\"https:\/\/www.allabolag.se\/Assets\/img\/rating--silver.png\" alt=\"GOD KREDITV\u00c4RDIGHET 2024-09-05\"&gt;"},"linkTo":"5561962332\/focusneo-ab","score":{"0":"95.000"},"remarks":[],"hasremarks":false,"relatedmetadata":[],"hasrelatedmetadata":false,"status":""},{"orgnr":"556741-2241","jurnamn":"Swedsnus.nu Sverige AB","ftgtyp":"ab","bolpres":"","abv_hgrupp":"Livsmedelsframst\u00e4llning","abv_ugrupp":"Tobaksvarutillverkning","ba_postort":"Alings\u00e5s","companyPresentation":{},"linkTo":"5567412241\/swedsnusnu-sverige-ab","score":{"0":"90.000"},"remarks":[],"hasremarks":false,"relatedmetadata":[{"key":"varumarket","value":"polestar"}],"hasrelatedmetadata":true,"status":""},{"orgnr":"559271-1476","jurnamn":"K\u00f6pnord AB","ftgtyp":"ab","bolpres":"","abv_hgrupp":"Detaljhandel","abv_ugrupp":"Postorder- &amp; Internethandel","ba_postort":"Helsingborg","companyPresentation":{},"linkTo":"5592711476\/kopnord-ab","score":{"0":"90.000"},"remarks":[],"hasremarks":false,"relatedmetadata":[{"key":"varumarket","value":"polestar"}],"hasrelatedmetadata":true,"status":""},{"orgnr":"556558-7671","jurnamn":"Elisa Polystar Sweden AB","ftgtyp":"ab","bolpres":"","abv_hgrupp":"Data, IT &amp; Telekommunikation","abv_ugrupp":"Utgivning av annan programvara","ba_postort":"Stockholm","companyPresentation":{},"linkTo":"5565587671\/elisa-polystar-sweden-ab","score":{"0":"75.000"},"remarks":[],"hasremarks":false,"relatedmetadata":[],"hasrelatedmetadata":false,"status":""},{"orgnr":"556985-4499","jurnamn":"Poolstar SB AB","ftgtyp":"ab","bolpres":"","abv_hgrupp":"Bygg-, Design- &amp; Inredningsverksamhet","abv_ugrupp":"Byggverksamhet","ba_postort":"Limhamn","companyPresentation":{},"linkTo":"5569854499\/poolstar-sb-ab","score":{"0":"75.000"},"remarks":[],"hasremarks":false,"relatedmetadata":[],"hasrelatedmetadata":false,"status":""},{"orgnr":"559257-6002","jurnamn":"Port &amp; Star AB","ftgtyp":"ab","bolpres":"","abv_hgrupp":"Juridik, Ekonomi &amp; Konsulttj\u00e4nster","abv_ugrupp":"Konsultverksamhet avseende f\u00f6retags org.","ba_postort":"Vaxholm","companyPresentation":{},"linkTo":"5592576002\/port-star-ab","score":{"0":"75.000"},"remarks":[],"hasremarks":false,"relatedmetadata":[],"hasrelatedmetadata":false,"status":""},{"orgnr":"801103-XXXX","jurnamn":"Polenta","ftgtyp":"ef","bolpres":"","abv_hgrupp":"Bygg-, Design- &amp; Inredningsverksamhet","abv_ugrupp":"Anl\u00e4ggningsarbeten","ba_postort":"Motala","companyPresentation":{},"linkTo":"801103JQGL\/polenta","score":{"0":"75.000"},"remarks":[],"hasremarks":false,"relatedmetadata":[],"hasrelatedmetadata":false,"status":""},{"orgnr":"559293-7451","jurnamn":"Thierry Plesnar AB","ftgtyp":"ab","bolpres":"","abv_hgrupp":"Data, IT &amp; Telekommunikation","abv_ugrupp":"Dataprogrammering","ba_postort":"G\u00f6teborg","companyPresentation":{},"linkTo":"5592937451\/thierry-plesnar-ab","score":{"0":"75.000"},"remarks":[],"hasremarks":false,"relatedmetadata":[],"hasrelatedmetadata":false,"status":""},{"orgnr":"559239-6799","jurnamn":"Polstar invest AB","ftgtyp":"ab","bolpres":"","abv_hgrupp":"Bemanning &amp; Arbetsf\u00f6rmedling","abv_ugrupp":"Personaluthyrning","ba_postort":"","companyPresentation":{},"linkTo":"5592396799\/polstar-invest-ab","score":{"0":"75.000"},"remarks":[{"remarkCode":"32","remarkDescription":"Likvidation beslutad","remarkDate":"2023-12-19"}],"hasremarks":true,"relatedmetadata":[],"hasrelatedmetadata":false,"status":""},{"orgnr":"480403-XXXX","jurnamn":"PALMSTAR","ftgtyp":"ef","bolpres":"","abv_hgrupp":"Reklam, PR &amp; Marknadsunders\u00f6kning","abv_ugrupp":"Reklam, PR, Mediebyr\u00e5 &amp; Annonsf\u00f6rs\u00e4lj.","ba_postort":"Ving\u00e5ker","companyPresentation":{},"linkTo":"480403JLJF\/palmstar","score":{"0":"75.000"},"remarks":[],"hasremarks":false,"relatedmetadata":[],"hasrelatedmetadata":false,"status":""},{"orgnr":"502091-4171","jurnamn":"POPPSTAR GMBH","ftgtyp":"fi","bolpres":"","abv_hgrupp":"Detaljhandel","abv_ugrupp":"Postorder- &amp; Internethandel","ba_postort":"Ok\u00e4nd","companyPresentation":{},"linkTo":"5020914171\/poppstar-gmbh","score":{"0":"75.000"},"remarks":[],"hasremarks":false,"relatedmetadata":[],"hasrelatedmetadata":false,"status":""},{"orgnr":"800629-XXXX","jurnamn":"Pilestad, Henrik Mattias","ftgtyp":"ef","bolpres":"","abv_hgrupp":"Kultur, N\u00f6je &amp; Fritid","abv_ugrupp":"Artistisk verksamhet","ba_postort":"Visby","companyPresentation":{},"linkTo":"800629OKRE\/pilestad-henrik-mattias","score":{"0":"75.000"},"remarks":[],"hasremarks":false,"relatedmetadata":[],"hasrelatedmetadata":false,"status":""},{"orgnr":"302311-XXXX","jurnamn":"POLESZAK, JERZY STANISLAW","ftgtyp":"ef","bolpres":"","abv_hgrupp":"Bygg-, Design- &amp; Inredningsverksamhet","abv_ugrupp":"M\u00e5leriarbeten","ba_postort":"Utlandet","companyPresentation":{},"linkTo":"302311JPOE\/poleszak-jerzy-stanislaw","score":{"0":"75.000"},"remarks":[],"hasremarks":false,"relatedmetadata":[],"hasrelatedmetadata":false,"status":""},{"orgnr":"670911-XXXX","jurnamn":"PelStar","ftgtyp":"ef","bolpres":"","abv_hgrupp":"Reparation &amp; Installation","abv_ugrupp":"Luftfartyg &amp; Rymdfarkoster, Reparation","ba_postort":"Gr\u00e4storp","companyPresentation":{},"linkTo":"670911LRUJ\/pelstar","score":{"0":"75.000"},"remarks":[],"hasremarks":false,"relatedmetadata":[],"hasrelatedmetadata":false,"status":""}]' :search-result-paginator-default='{"current_page":1,"data":[{"companyPresentation":null,"allabolagVerksamhetsKod":"45110"},{"companyPresentation":null},{"companyPresentation":null},{"companyPresentation":null},{"companyPresentation":null},{"companyPresentation":null},{"companyPresentation":{"hasPresentation":1,"logo":"https:\/\/www.allabolag.se\/bolagspresentation\/?file=images\/2019\/1\/15c486b421e9e3.png","showSigill":true,"sigillRating":4,"sigillImg":"&lt;img class=\"company-rating\" src=\"https:\/\/www.allabolag.se\/Assets\/img\/rating--silver.png\" alt=\"GOD KREDITV\u00c4RDIGHET 2024-09-05\"&gt;"}},{"companyPresentation":null},{"companyPresentation":null},{"companyPresentation":null},{"companyPresentation":null},{"companyPresentation":null},{"companyPresentation":null},{"companyPresentation":null},{"companyPresentation":null},{"companyPresentation":null},{"companyPresentation":null},{"companyPresentation":null},{"companyPresentation":null},{"companyPresentation":null}],"first_page_url":"https:\/\/www.allabolag.se\/what\/Polestar?page=1","from":1,"last_page":2,"last_page_url":"https:\/\/www.allabolag.se\/what\/Polestar?page=2","links":[{"url":null,"label":"&amp;laquo; Previous","active":false},{"url":"https:\/\/www.allabolag.se\/what\/Polestar?page=1","label":"1","active":true},{"url":"https:\/\/www.allabolag.se\/what\/Polestar?page=2","label":"2","active":false},{"url":"https:\/\/www.allabolag.se\/what\/Polestar?page=2","label":"Next &amp;raquo;","active":false}],"next_page_url":"https:\/\/www.allabolag.se\/what\/Polestar?page=2","path":"https:\/\/www.allabolag.se\/what\/Polestar","per_page":20,"prev_page_url":null,"to":20,"total":34}' :search-url="'what'" :selected-filters-default="[]" :selected-for-compare="[]" :show-banners="1" :sticky-banner="1" :total-hits-default="34" :un-selected-filters-default='{"xb":{"text":"BOLAGSFORM","0":{"numberOfSearch":"17","name":"aktiebolag","searchIndex":"xb\/AB"},"1":{"numberOfSearch":"10","name":"enskild firma","searchIndex":"xb\/EF"},"2":{"numberOfSearch":"6","name":"filialer","searchIndex":"xb\/FI"},"3":{"numberOfSearch":"1","name":"hb &amp; kb","searchIndex":"xb\/HK"}},"xl":{"text":"L\u00c4N","0":{"numberOfSearch":"7","name":"stockholm","searchIndex":"xl\/1"},"1":{"numberOfSearch":"7","name":"v\u00e4stra g\u00f6taland","searchIndex":"xl\/14"},"2":{"numberOfSearch":"3","name":"sk\u00e5ne","searchIndex":"xl\/12"},"3":{"numberOfSearch":"2","name":"norrbotten","searchIndex":"xl\/25"},"4":{"numberOfSearch":"2","name":"\u00f6sterg\u00f6tland","searchIndex":"xl\/5"},"5":{"numberOfSearch":"1","name":"\u00f6rebro","searchIndex":"xl\/18"},"6":{"numberOfSearch":"1","name":"v\u00e4stmanland","searchIndex":"xl\/19"},"7":{"numberOfSearch":"1","name":"v\u00e4sternorrland","searchIndex":"xl\/22"},"8":{"numberOfSearch":"1","name":"v\u00e4sterbotten","searchIndex":"xl\/24"},"9":{"numberOfSearch":"1","name":"uppsala","searchIndex":"xl\/3"},"10":{"numberOfSearch":"1","name":"s\u00f6dermanland","searchIndex":"xl\/4"},"11":{"numberOfSearch":"1","name":"gotland","searchIndex":"xl\/9"}},"xv":{"text":"BRANSCH","0":{"numberOfSearch":"7","name":"bygg-, design- &amp; ...","searchIndex":"xv\/BYGG-, DESIGN- &amp;amp; INREDNINGSVERKSAMHET"},"1":{"numberOfSearch":"3","name":"bank, finans &amp; f\u00f6...","searchIndex":"xv\/BANK, FINANS &amp;amp; F\u00d6RS\u00c4KRING"},"2":{"numberOfSearch":"3","name":"data, it &amp; teleko...","searchIndex":"xv\/DATA, IT &amp;amp; TELEKOMMUNIKATION"},"3":{"numberOfSearch":"3","name":"media","searchIndex":"xv\/MEDIA"},"4":{"numberOfSearch":"3","name":"tillverkning &amp; in...","searchIndex":"xv\/TILLVERKNING &amp;amp; INDUSTRI"},"5":{"numberOfSearch":"2","name":"detaljhandel","searchIndex":"xv\/DETALJHANDEL"},"6":{"numberOfSearch":"2","name":"motorfordonshandel","searchIndex":"xv\/MOTORFORDONSHANDEL"},"7":{"numberOfSearch":"2","name":"reklam, pr &amp; mark...","searchIndex":"xv\/REKLAM, PR &amp;amp; MARKNADSUNDERS\u00d6KNING"},"8":{"numberOfSearch":"1","name":"bemanning &amp; arbet...","searchIndex":"xv\/BEMANNING &amp;amp; ARBETSF\u00d6RMEDLING"},"9":{"numberOfSearch":"1","name":"fastighetsverksamhet","searchIndex":"xv\/FASTIGHETSVERKSAMHET"},"10":{"numberOfSearch":"1","name":"f\u00f6retagstj\u00e4nster","searchIndex":"xv\/F\u00d6RETAGSTJ\u00c4NSTER"},"11":{"numberOfSearch":"1","name":"juridik, ekonomi ...","searchIndex":"xv\/JURIDIK, EKONOMI &amp;amp; KONSULTTJ\u00c4NSTER"},"12":{"numberOfSearch":"1","name":"kultur, n\u00f6je &amp; fr...","searchIndex":"xv\/KULTUR, N\u00d6JE &amp;amp; FRITID"},"13":{"numberOfSearch":"1","name":"livsmedelsframst\u00e4...","searchIndex":"xv\/LIVSMEDELSFRAMST\u00c4LLNING"},"14":{"numberOfSearch":"1","name":"partihandel","searchIndex":"xv\/PARTIHANDEL"},"15":{"numberOfSearch":"1","name":"reparation &amp; inst...","searchIndex":"xv\/REPARATION &amp;amp; INSTALLATION"}},"xe":{"text":"ANST\u00c4LLDA","0":{"numberOfSearch":"24","name":"0","searchIndex":"xe\/1"},"1":{"numberOfSearch":"5","name":"1 - 4","searchIndex":"xe\/2"},"2":{"numberOfSearch":"1","name":"5 - 9","searchIndex":"xe\/3"},"3":{"numberOfSearch":"2","name":"20 - 49","searchIndex":"xe\/5"},"4":{"numberOfSearch":"1","name":"100 - 199","searchIndex":"xe\/7"},"5":{"numberOfSearch":"1","name":"200 - 999","searchIndex":"xe\/8"}}}' where="">
        <template v-slot:export="">
<export-results :downloads-remaining-for-current-user="0" :has-plus="0" checkout-url="https://www.allabolag.se/produkter/ticscheckout" product-id="b91dafbb-1567-4e7e-9a69-67da102e4542" product-name="Export av sökresultat" product-price="40" product-type="searchExport">
</export-results>
</template>
        <div class="lwad lwad-desktop desktop desktop-only tw-justify-start tw-mb-4" id="allabolag_desktop-left1" style="min-height: 256px"></div>
        <div class="desktop-only blurb" data-blurb-id="486">
            <article class="info-area__container--large">
                <div class="box box--ad2 clearfix">
                    <div class="blurb-top__img">
                        <div class="advert__mark">Annons </div>
                        <div><img class="img-thumbnail" src="https://www.allabolag.se/bloxy/*?file=t_10_crop_fe5_u8L0_2244932e-3c84-4de9-aeec-041b4f2f8382.jpg" xwidth="100px" /></div>
                    </div>
                    <div class="flex-grid">
                        <div class="flex-grid__cell width_max_100_percent blurb__text">
                            <a class="heading" href="http://pubads.g.doubleclick.net/gampad/clk?id=6775900714&amp;iu=/3953516/adprofit-native-klick">
                                <h2>Därför är det viktigt med en livförsäkring</h2>
                            </a>
                            <p><span class="advert__company">If försäkring </span><a class="" href="http://pubads.g.doubleclick.net/gampad/clk?id=6775900714&amp;iu=/3953516/adprofit-native-klick">Om livet tar en ny vändning kan en livförsäkring hjälpa din familj att klara ekonomin.</a></p>
                        </div>
                    </div>
                </div>
            </article>
        </div>
        <div class="desktop-only">
            <article class="info-area__container info-area__container--large ajax-load-spl" data-loaded="false">
            </article>
        </div>
        <div class="desktop-only" id="sidebar-BL">
            <div class="lwad lwad-desktop desktop desktop-only tw-justify-start tw-mt-4" id="allabolag_desktop-left2_1"></div>
            <div class="lwad lwad-desktop desktop desktop-only tw-justify-start tw-mt-4" id="allabolag_desktop-left2_2"></div>
            <div class="lwad lwad-desktop desktop desktop-only tw-justify-start tw-my-4" id="allabolag_desktop-left2_3"></div>
        </div>
        <div class="desktop-only blurb" data-blurb-id="480">
            <article class="info-area__container--large">
                <div class="box box--ad2 clearfix">
                    <div class="blurb-top__img">
                        <div class="advert__mark">Annons </div>
                        <div><img class="img-thumbnail" src="https://www.allabolag.se/bloxy/*?file=t_SE Content Displaycontent_display_sme_webshop_se_002.jpg" xwidth="100px" /></div>
                    </div>
                    <div class="flex-grid">
                        <div class="flex-grid__cell width_max_100_percent blurb__text">
                            <a class="heading" href="http://pubads.g.doubleclick.net/gampad/clk?id=6776422244&amp;iu=/3953516/adprofit-native-klick">
                                <h2>Rätt företagsförsäkring online på ett ögonblick</h2>
                            </a>
                            <p><span class="advert__company">If försäkring </span><a class="" href="http://pubads.g.doubleclick.net/gampad/clk?id=6776422244&amp;iu=/3953516/adprofit-native-klick">Lika enkelt att köpa företagsförsäkring som det är att shoppa kläder. Se ditt pris direkt!</a></p>
                        </div>
                    </div>
                </div>
            </article>
        </div>
    </search>
</div>